Programmes/QUARTUS FPGA/BRICOLAGE/DFF8/simulation/qsim/dff8.msim.vcd
$comment
	File created using the following command:
		vcd file dff8.msim.vcd -direction
$end
$date
	Fri Sep 25 12:03:40 2015
$end
$version
	ModelSim Version 10.1d
$end
$timescale
	1ps
$end
$scope module dff8_vlg_vec_tst $end
$var reg 1 ! CLK $end
$var reg 8 " D [7:0] $end
$var wire 1 # Q [7] $end
$var wire 1 $ Q [6] $end
$var wire 1 % Q [5] $end
$var wire 1 & Q [4] $end
$var wire 1 ' Q [3] $end
$var wire 1 ( Q [2] $end
$var wire 1 ) Q [1] $end
$var wire 1 * Q [0] $end
$var wire 1 + sampler $end
$scope module i1 $end
$var wire 1 , gnd $end
$var wire 1 - vcc $end
$var wire 1 . unknown $end
$var tri1 1 / devclrn $end
$var tri1 1 0 devpor $end
$var tri1 1 1 devoe $end
$var wire 1 2 CLK~combout $end
$var wire 1 3 CLK~clkctrl_outclk $end
$var wire 1 4 Q[0]~reg0feeder_combout $end
$var wire 1 5 Q[0]~reg0_regout $end
$var wire 1 6 Q[1]~reg0feeder_combout $end
$var wire 1 7 Q[1]~reg0_regout $end
$var wire 1 8 Q[2]~reg0_regout $end
$var wire 1 9 Q[3]~reg0feeder_combout $end
$var wire 1 : Q[3]~reg0_regout $end
$var wire 1 ; Q[4]~reg0feeder_combout $end
$var wire 1 < Q[4]~reg0_regout $end
$var wire 1 = Q[5]~reg0feeder_combout $end
$var wire 1 > Q[5]~reg0_regout $end
$var wire 1 ? Q[6]~reg0feeder_combout $end
$var wire 1 @ Q[6]~reg0_regout $end
$var wire 1 A Q[7]~reg0feeder_combout $end
$var wire 1 B Q[7]~reg0_regout $end
$var wire 1 C D~combout [7] $end
$var wire 1 D D~combout [6] $end
$var wire 1 E D~combout [5] $end
$var wire 1 F D~combout [4] $end
$var wire 1 G D~combout [3] $end
$var wire 1 H D~combout [2] $end
$var wire 1 I D~combout [1] $end
$var wire 1 J D~combout [0] $end
$upscope $end
$upscope $end
$enddefinitions $end
#0
$dumpvars
0!
b11111111 "
0*
0)
0(
0'
0&
0%
0$
0#
x+
0,
1-
x.
1/
10
11
02
03
14
05
16
07
08
19
0:
1;
0<
1=
0>
1?
0@
1A
0B
1J
1I
1H
1G
1F
1E
1D
1C
$end
#30000
1!
12
13
0+
1B
1@
1>
1<
1:
18
17
15
1#
1$
1%
1&
1'
1(
1)
1*
#60000
0!
02
03
1+
#90000
1!
12
13
0+
#120000
b1111111 "
b111111 "
b11111 "
b1111 "
b111 "
b11 "
b1 "
b0 "
0!
0J
0I
0H
0G
0F
0E
0D
0C
02
03
1+
04
06
09
0;
0=
0?
0A
#150000
1!
12
13
0+
0B
0@
0>
0<
0:
08
07
05
0#
0$
0%
0&
0'
0(
0)
0*
#160000
b10000000 "
b11000000 "
b11100000 "
b11110000 "
b11111000 "
b11111100 "
b11111110 "
b11111111 "
1J
1I
1H
1G
1F
1E
1D
1C
1+
14
16
19
1;
1=
1?
1A
#180000
0!
02
03
0+
#190000
b1111111 "
b111111 "
b11111 "
b1111 "
b111 "
b11 "
b1 "
b0 "
0J
0I
0H
0G
0F
0E
0D
0C
1+
04
06
09
0;
0=
0?
0A
#210000
1!
12
13
0+
#240000
0!
02
03
1+
#270000
1!
12
13
0+
#280000
b10000000 "
b11000000 "
b11100000 "
b11110000 "
b11111000 "
b11111100 "
b11111110 "
b11111111 "
1J
1I
1H
1G
1F
1E
1D
1C
1+
14
16
19
1;
1=
1?
1A
#300000
0!
02
03
0+
#330000
1!
12
13
1+
1B
1@
1>
1<
1:
18
17
15
1#
1$
1%
1&
1'
1(
1)
1*
#360000
0!
02
03
0+
#390000
1!
12
13
1+
#420000
0!
02
03
0+
#430000
b1111111 "
b111111 "
b11111 "
b1111 "
b111 "
b11 "
b1 "
b0 "
0J
0I
0H
0G
0F
0E
0D
0C
1+
04
06
09
0;
0=
0?
0A
#450000
1!
12
13
0+
0B
0@
0>
0<
0:
08
07
05
0#
0$
0%
0&
0'
0(
0)
0*
#480000
0!
02
03
1+
#510000
1!
12
13
0+
#540000
0!
02
03
1+
#570000
1!
12
13
0+
#600000
0!
02
03
1+
#630000
1!
12
13
0+
#660000
0!
02
03
1+
#690000
1!
12
13
0+
#720000
0!
02
03
1+
#750000
1!
12
13
0+
#780000
0!
02
03
1+
#810000
1!
12
13
0+
#840000
0!
02
03
1+
#870000
1!
12
13
0+
#900000
0!
02
03
1+
#930000
1!
12
13
0+
#960000
0!
02
03
1+
#990000
1!
12
13
0+
